digraph "cuTest::TesterBase"
{
 // LATEX_PDF_SIZE
  edge [fontname="Helvetica",fontsize="10",labelfontname="Helvetica",labelfontsize="10"];
  node [fontname="Helvetica",fontsize="10",shape=record];
  Node1 [label="cuTest::TesterBase",height=0.2,width=0.4,color="black", fillcolor="grey75", style="filled", fontcolor="black",tooltip="The base class for unit tests."];
  Node1 -> Node2 [dir="back",color="midnightblue",fontsize="10",style="solid",fontname="Helvetica"];
  Node2 [label="DataStructure::SmartFixed\lArrayTester",height=0.2,width=0.4,color="black", fillcolor="white", style="filled",URL="$classDataStructure_1_1SmartFixedArrayTester.html",tooltip="TESTER for the SmartFixedArray."];
}
