INITIAL MAZE:
##########
######   E
###### ###
###    ###
###### ###
#   ## ###
### ## ###
### ## ###
S      ###
##########

Step 1
##########
######   E
###### ###
###    ###
###### ###
#   ## ###
### ## ###
### ## ###
@      ###
##########

Step 2
##########
######   E
###### ###
###    ###
###### ###
#   ## ###
### ## ###
### ## ###
-@     ###
##########

Step 3
##########
######   E
###### ###
###    ###
###### ###
#   ## ###
### ## ###
### ## ###
--@    ###
##########

Step 4
##########
######   E
###### ###
###    ###
###### ###
#   ## ###
### ## ###
### ## ###
---@   ###
##########

Step 5
##########
######   E
###### ###
###    ###
###### ###
#   ## ###
### ## ###
###@## ###
----   ###
##########

Step 6
##########
######   E
###### ###
###    ###
###### ###
#   ## ###
###@## ###
###-## ###
----   ###
##########

Step 7
##########
######   E
###### ###
###    ###
###### ###
#  @## ###
###-## ###
###-## ###
----   ###
##########

Step 8
##########
######   E
###### ###
###    ###
###### ###
# @-## ###
###-## ###
###-## ###
----   ###
##########

Step 9
##########
######   E
###### ###
###    ###
###### ###
#@--## ###
###-## ###
###-## ###
----   ###
##########

Step 10
##########
######   E
###### ###
###    ###
###### ###
#---## ###
###-## ###
###-## ###
----@  ###
##########

Step 11
##########
######   E
###### ###
###    ###
###### ###
#---## ###
###-## ###
###-## ###
-----@ ###
##########

Step 12
##########
######   E
###### ###
###    ###
###### ###
#---## ###
###-## ###
###-## ###
------@###
##########

Step 13
##########
######   E
###### ###
###    ###
###### ###
#---## ###
###-## ###
###-##@###
-------###
##########

Step 14
##########
######   E
###### ###
###    ###
###### ###
#---## ###
###-##@###
###-##-###
-------###
##########

Step 15
##########
######   E
###### ###
###    ###
###### ###
#---##@###
###-##-###
###-##-###
-------###
##########

Step 16
##########
######   E
###### ###
###    ###
######@###
#---##-###
###-##-###
###-##-###
-------###
##########

Step 17
##########
######   E
###### ###
###   @###
######-###
#---##-###
###-##-###
###-##-###
-------###
##########

Step 18
##########
######   E
######@###
###   -###
######-###
#---##-###
###-##-###
###-##-###
-------###
##########

Step 19
##########
######@  E
######-###
###   -###
######-###
#---##-###
###-##-###
###-##-###
-------###
##########

Step 20
##########
######-@ E
######-###
###   -###
######-###
#---##-###
###-##-###
###-##-###
-------###
##########

Step 21
##########
######--@E
######-###
###   -###
######-###
#---##-###
###-##-###
###-##-###
-------###
##########
